IS415 - GAA - Take-home_Ex02
…
wm_q <- aggregated_dengue_cases_summary %>%
  mutate(nb = st_contiguity(geometry),
         wt = st_weights(nb,
                         style = "W"),
         .before = 1) 

wm_q

Simple feature collection with 5140 features and 8 fields
Geometry type: POLYGON
Dimension:     XY
Bounding box:  xmin: 120.0627 ymin: 22.89401 xmax: 120.2925 ymax: 23.09144
Geodetic CRS:  WGS 84
# A tibble: 5,140 × 9
   nb          wt     VILLCODE    VILLNAME VILLENG number_of_weeks week_end_date
 * <nb>        <list> <chr>       <chr>    <chr>             <dbl> <date>       
 1 <int [199]> <dbl>  67000270001 太子里   Taizi …              31 2023-08-06   
 2 <int [79]>  <dbl>  67000270002 土庫里   Tuku V…              31 2023-08-06   
 3 <int [119]> <dbl>  67000270003 一甲里   Yijia …              31 2023-08-06   
 4 <int [259]> <dbl>  67000270004 仁德里   Rende …              31 2023-08-06   
 5 <int [79]>  <dbl>  67000270005 仁義里   Renyi …              31 2023-08-06   
 6 <int [99]>  <dbl>  67000270006 新田里   Xintia…              31 2023-08-06   
 7 <int [119]> <dbl>  67000270007 後壁里   Houbi …              31 2023-08-06   
 8 <int [119]> <dbl>  67000270008 上崙里   Shangl…              31 2023-08-06   
 9 <int [119]> <dbl>  67000270011 保安里   Bao'an…              31 2023-08-06   
10 <int [299]> <dbl>  67000270012 成功里   Chengg…              31 2023-08-06   
# ℹ 5,130 more rows
# ℹ 2 more variables: geometry <POLYGON [°]>, total_cases <dbl>
…
Moving on to the hot-spot and cold-spot analysis for dengue cases across the given study area

HCSA_dengue_cases <- wm_idw %>% 
  mutate(local_Gi = local_gstar_perm(
    aggregated_dengue_cases_summary$total_cases, nb, wt, nsim = 999),
         .before = 1) %>%
  unnest(local_Gi)
HCSA_dengue_cases

Simple feature collection with 5140 features and 16 fields
Geometry type: POLYGON
Dimension:     XY
Bounding box:  xmin: 120.0627 ymin: 22.89401 xmax: 120.2925 ymax: 23.09144
Geodetic CRS:  WGS 84
# A tibble: 5,140 × 17
   gi_star    e_gi   var_gi p_value   p_sim p_folded_sim skewness kurtosis nb   
     <dbl>   <dbl>    <dbl>   <dbl>   <dbl>        <dbl>    <dbl>    <dbl> <nb> 
 1  -2.41  1.94e-4 4.49e-10  -2.28  2.27e-2        0.012    0.006    0.288 <int>
 2  -2.79  1.92e-4 1.01e- 9  -2.77  5.65e-3        0.002    0.001    0.278 <int>
 3  -0.318 1.95e-4 6.88e-10  -0.325 7.45e-1        0.774    0.387    0.329 <int>
 4   2.45  1.94e-4 3.13e-10   2.45  1.41e-2        0.026    0.013    0.133 <int>
 5   0.604 1.94e-4 1.11e- 9   0.606 5.44e-1        0.54     0.271    0.298 <int>
 6  -0.217 1.93e-4 8.94e-10  -0.170 8.65e-1        0.91     0.453    0.204 <int>
 7  -3.00  1.95e-4 7.11e-10  -2.97  3.03e-3        0.002    0.001    0.183 <int>
 8  -5.27  1.93e-4 6.92e-10  -5.19  2.06e-7        0.002    0.001    0.260 <int>
 9  -4.93  1.93e-4 7.12e-10  -4.82  1.45e-6        0.002    0.001    0.295 <int>
10  -5.72  1.95e-4 2.93e-10  -5.49  4.00e-8        0.002    0.001    0.106 <int>
# ℹ 5,130 more rows
# ℹ 8 more variables: wts <list>, VILLCODE <chr>, VILLNAME <chr>,
#   VILLENG <chr>, number_of_weeks <dbl>, week_end_date <date>,
#   geometry <POLYGON [°]>, total_cases <dbl>
…
